3 Manipulando Colunas e Linhas – Workshop em R
…
Em muito casos práticos, quando estamos começando a trabalhar com nossa base de dados, embora ao fazermos o processo de importação tenhamos a disposição todas as colunas (variáveis) desse banco de dados, nem todas elas serão de nosso interesse. Por isso, aprender a selecionar apenas as variáveis que vamos utilizar é algo desejável, já que quanto menor o banco de dados, ou seja, com menos variáveis desnecessárias ela continver, menor será a exigência computacional de nossa máquina e mais rápida será nossa análise.

3.2.1 Selecionando algumas colunas 1

Para selecionarmos as colunas de um banco de dados, que contém ao todo 9 linhas, podemos fazer uso da função select() cujos argumentos inseridos nela vão especificar quais colunas gostaríamos de trabalhar de nossa base de dados, ou qual gostaríamos de excluir.

Digamos que gostaríamos apenas de selecionar as seguintes variáveis da base filmes: movies, genre, release_date, mpaa_rating. Poderíamos fazer isso utilizando a seguinte linha de código cujo resultado será mostrado na tela do Console do R4:

4 Não estaremos mostrando os resultados dos demais códigos que forem executados nessa parte apenas por uma questão de comodidade, mas lembre que todos vão aparecer na tela do Console do RStudio!

# selecionando algumas colunas de nossa base de dados
filmes |> 
  select(movie, genre, release_date, mpaa_rating)

# A tibble: 3,401 × 4
   movie                               genre     release_date mpaa_rating
   <chr>                               <chr>     <chr>        <chr>      
 1 Evan Almighty                       Comedy    6/22/2007    PG         
 2 Waterworld                          Action    7/28/1995    PG-13      
 3 King Arthur: Legend of the Sword    Adventure 5/12/2017    PG-13      
 4 47 Ronin                            Action    12/25/2013   PG-13      
 5 Jurassic World: Fallen Kingdom      Action    6/22/2018    PG-13      
 6 Guardians of the Galaxy             Action    8/1/2014     PG-13      
 7 Iron Man 2                          Action    5/7/2010     PG-13      
 8 Captain America: The Winter Soldier Action    4/4/2014     PG-13      
 9 Dawn of the Planet of the Apes      Adventure 7/11/2014    PG-13      
10 The Polar Express                   Adventure 11/10/2004   G          
# ℹ 3,391 more rows
…
